[
    {
        "name": "Grand slam burger",
        "address": "20 Rue du capitaine resplandy, 75010 Paris",
        "lat": 43.566669,
        "long": 3.9,
        "ratings": [
            {
                "stars": 4,
                "comment": "Un excellent restaurant, j'y reviendrai ! Par contre il vaut mieux aimer la viande."
            },
            {
                "stars": 1,
                "comment": "Tout simplement mon restaurant préféré !"
            },
            {
                "stars": 3,
                "comment": "Tout simplement mon restaurant préféré !"
            },
            {
                "stars": 0,
                "comment": "Tout simplement mon restaurant préféré !"
            }
        ]
    },
    {
        "name": "La tourette",
        "address": "23 rue atgier hazard",
        "lat": 43.62505,
        "long": 3.862038,
        "ratings": [
            {
                "stars": 2,
                "comment": "Un excellent restaurant, j'y reviendrai ! Par contre il vaut mieux aimer la viande."
            },
            {
                "stars": 5,
                "comment": "Tout simplement mon restaurant préféré !"
            }
        ]
    },
    {
        "name": "Childhood",
        "address": "2 place de la comedie",
        "lat": 43.583328,
        "long": 3.8,
        "ratings": [
            {
                "stars": 4,
                "comment": "Un excellent restaurant, j'y reviendrai ! Par contre il vaut mieux aimer la viande."
            },
            {
                "stars": 5,
                "comment": "Tout simplement mon restaurant préféré !"
            },
            {
                "stars": 1,
                "comment": "Tout simplement mon restaurant préféré !"
            },
            {
                "stars": 3,
                "comment": "Tout simplement mon restaurant préféré !"
            },
            {
                "stars": 2,
                "comment": "Tout simplement mon restaurant préféré !"
            },
            {
                "stars": 3,
                "comment": "Tout simplement mon restaurant préféré !"
            },
            {
                "stars": 5,
                "comment": "Tout simplement mon restaurant préféré !"
            },
            {
                "stars": 4,
                "comment": "Tout simplement mon restaurant préféré !"
            },
            {
                "stars": 1,
                "comment": "Tout simplement mon restaurant préféré !"
            },
            {
                "stars": 5,
                "comment": "Tout simplement mon restaurant préféré !"
            }
        ]
    }
]